<?xml version="1.0" encoding="UTF-8" standalone="no"?>
<!-- Created with Inkscape (http://www.inkscape.org/) -->

<svg
   xmlns:dc="http://purl.org/dc/elements/1.1/"
   xmlns:cc="http://creativecommons.org/ns#"
   xmlns:rdf="http://www.w3.org/1999/02/22-rdf-syntax-ns#"
   xmlns:svg="http://www.w3.org/2000/svg"
   xmlns="http://www.w3.org/2000/svg"
   xmlns:sodipodi="http://sodipodi.sourceforge.net/DTD/sodipodi-0.dtd"
   xmlns:inkscape="http://www.inkscape.org/namespaces/inkscape"
   id="svg2"
   version="1.1"
   inkscape:version="0.92.1 unknown"
   width="512"
   height="512"
   sodipodi:docname="folder-saved-search.svg">
  <metadata
     id="metadata8">
    <rdf:RDF>
      <cc:Work
         rdf:about="">
        <dc:format>image/svg+xml</dc:format>
        <dc:type
           rdf:resource="http://purl.org/dc/dcmitype/StillImage" />
        <dc:title></dc:title>
      </cc:Work>
    </rdf:RDF>
  </metadata>
  <defs
     id="defs6">
    <filter
       id="filter3775"
       height="1"
       width="1"
       y="0"
       x="0"
       inkscape:label="Film grain"
       inkscape:menu="Image effects"
       inkscape:menu-tooltip="Adds a small scale graininess"
       color-interpolation-filters="sRGB">
      <feTurbulence
         id="feTurbulence3777"
         type="fractalNoise"
         numOctaves="3"
         baseFrequency="1"
         seed="0"
         result="result0" />
      <feColorMatrix
         id="feColorMatrix3779"
         result="result4"
         values="0"
         type="saturate" />
      <feComposite
         id="feComposite3781"
         in2="result4"
         in="SourceGraphic"
         operator="arithmetic"
         k1="1.25"
         k2="0.5"
         k3="0.5"
         result="result2" />
      <feBlend
         id="feBlend3783"
         in2="SourceGraphic"
         result="result5"
         mode="normal"
         in="result2" />
      <feComposite
         id="feComposite3785"
         in2="SourceGraphic"
         in="result5"
         operator="in"
         result="result3" />
    </filter>
    <filter
       id="filter3789"
       height="1"
       width="1"
       y="0"
       x="0"
       inkscape:label="Film grain"
       inkscape:menu="Image effects"
       inkscape:menu-tooltip="Adds a small scale graininess"
       color-interpolation-filters="sRGB">
      <feTurbulence
         id="feTurbulence3791"
         type="fractalNoise"
         numOctaves="3"
         baseFrequency="1"
         seed="0"
         result="result0" />
      <feColorMatrix
         id="feColorMatrix3793"
         result="result4"
         values="0"
         type="saturate" />
      <feComposite
         id="feComposite3795"
         in2="result4"
         in="SourceGraphic"
         operator="arithmetic"
         k1="1.25"
         k2="0.5"
         k3="0.5"
         result="result2" />
      <feBlend
         id="feBlend3797"
         in2="SourceGraphic"
         result="result5"
         mode="normal"
         in="result2" />
      <feComposite
         id="feComposite3799"
         in2="SourceGraphic"
         in="result5"
         operator="in"
         result="result3" />
    </filter>
    <filter
       id="filter3836"
       height="1"
       width="1"
       y="0"
       x="0"
       inkscape:label="Film grain"
       inkscape:menu="Image effects"
       inkscape:menu-tooltip="Adds a small scale graininess"
       color-interpolation-filters="sRGB">
      <feTurbulence
         id="feTurbulence3838"
         type="fractalNoise"
         numOctaves="3"
         baseFrequency="1"
         seed="0"
         result="result0" />
      <feColorMatrix
         id="feColorMatrix3840"
         result="result4"
         values="0"
         type="saturate" />
      <feComposite
         id="feComposite3842"
         in2="result4"
         in="SourceGraphic"
         operator="arithmetic"
         k1="1.25"
         k2="0.5"
         k3="0.5"
         result="result2" />
      <feBlend
         id="feBlend3844"
         in2="SourceGraphic"
         result="result5"
         mode="normal"
         in="result2" />
      <feComposite
         id="feComposite3846"
         in2="SourceGraphic"
         in="result5"
         operator="in"
         result="result3" />
    </filter>
    <filter
       id="filter3894"
       height="1"
       width="1"
       y="0"
       x="0"
       inkscape:label="Film grain"
       inkscape:menu="Image effects"
       inkscape:menu-tooltip="Adds a small scale graininess"
       color-interpolation-filters="sRGB">
      <feTurbulence
         id="feTurbulence3896"
         type="fractalNoise"
         numOctaves="3"
         baseFrequency="1"
         seed="0"
         result="result0" />
      <feColorMatrix
         id="feColorMatrix3898"
         result="result4"
         values="0"
         type="saturate" />
      <feComposite
         id="feComposite3900"
         in2="result4"
         in="SourceGraphic"
         operator="arithmetic"
         k1="1.25"
         k2="0.5"
         k3="0.5"
         result="result2" />
      <feBlend
         id="feBlend3902"
         in2="SourceGraphic"
         result="result5"
         mode="normal"
         in="result2" />
      <feComposite
         id="feComposite3904"
         in2="SourceGraphic"
         in="result5"
         operator="in"
         result="result3" />
    </filter>
    <filter
       id="filter3927"
       height="1"
       width="1"
       y="0"
       x="0"
       inkscape:label="Film grain"
       inkscape:menu="Image effects"
       inkscape:menu-tooltip="Adds a small scale graininess"
       color-interpolation-filters="sRGB">
      <feTurbulence
         id="feTurbulence3929"
         type="fractalNoise"
         numOctaves="3"
         baseFrequency="1"
         seed="0"
         result="result0" />
      <feColorMatrix
         id="feColorMatrix3931"
         result="result4"
         values="0"
         type="saturate" />
      <feComposite
         id="feComposite3933"
         in2="result4"
         in="SourceGraphic"
         operator="arithmetic"
         k1="1.25"
         k2="0.5"
         k3="0.5"
         result="result2" />
      <feBlend
         id="feBlend3935"
         in2="SourceGraphic"
         result="result5"
         mode="normal"
         in="result2" />
      <feComposite
         id="feComposite3937"
         in2="SourceGraphic"
         in="result5"
         operator="in"
         result="result3" />
    </filter>
    <filter
       color-interpolation-filters="sRGB"
       inkscape:menu-tooltip="Adds a small scale graininess"
       inkscape:menu="Image effects"
       inkscape:label="Film grain"
       x="0"
       y="0"
       width="1"
       height="1"
       id="filter3775-5">
      <feTurbulence
         result="result0"
         seed="0"
         baseFrequency="1"
         numOctaves="3"
         type="fractalNoise"
         id="feTurbulence3777-3" />
      <feColorMatrix
         type="saturate"
         values="0"
         result="result4"
         id="feColorMatrix3779-5" />
      <feComposite
         result="result2"
         k3="0.5"
         k2="0.5"
         k1="1.25"
         operator="arithmetic"
         in="SourceGraphic"
         in2="result4"
         id="feComposite3781-6" />
      <feBlend
         in="result2"
         mode="normal"
         result="result5"
         in2="SourceGraphic"
         id="feBlend3783-2" />
      <feComposite
         result="result3"
         operator="in"
         in="result5"
         in2="SourceGraphic"
         id="feComposite3785-9" />
    </filter>
    <filter
       color-interpolation-filters="sRGB"
       inkscape:menu-tooltip="Adds a small scale graininess"
       inkscape:menu="Image effects"
       inkscape:label="Film grain"
       x="0"
       y="0"
       width="1"
       height="1"
       id="filter3789-1">
      <feTurbulence
         result="result0"
         seed="0"
         baseFrequency="1"
         numOctaves="3"
         type="fractalNoise"
         id="feTurbulence3791-2" />
      <feColorMatrix
         type="saturate"
         values="0"
         result="result4"
         id="feColorMatrix3793-7" />
      <feComposite
         result="result2"
         k3="0.5"
         k2="0.5"
         k1="1.25"
         operator="arithmetic"
         in="SourceGraphic"
         in2="result4"
         id="feComposite3795-0" />
      <feBlend
         in="result2"
         mode="normal"
         result="result5"
         in2="SourceGraphic"
         id="feBlend3797-9" />
      <feComposite
         result="result3"
         operator="in"
         in="result5"
         in2="SourceGraphic"
         id="feComposite3799-3" />
    </filter>
    <filter
       color-interpolation-filters="sRGB"
       inkscape:menu-tooltip="Adds a small scale graininess"
       inkscape:menu="Image effects"
       inkscape:label="Film grain"
       x="0"
       y="0"
       width="1"
       height="1"
       id="filter3836-6">
      <feTurbulence
         result="result0"
         seed="0"
         baseFrequency="1"
         numOctaves="3"
         type="fractalNoise"
         id="feTurbulence3838-0" />
      <feColorMatrix
         type="saturate"
         values="0"
         result="result4"
         id="feColorMatrix3840-6" />
      <feComposite
         result="result2"
         k3="0.5"
         k2="0.5"
         k1="1.25"
         operator="arithmetic"
         in="SourceGraphic"
         in2="result4"
         id="feComposite3842-2" />
      <feBlend
         in="result2"
         mode="normal"
         result="result5"
         in2="SourceGraphic"
         id="feBlend3844-6" />
      <feComposite
         result="result3"
         operator="in"
         in="result5"
         in2="SourceGraphic"
         id="feComposite3846-1" />
    </filter>
    <filter
       color-interpolation-filters="sRGB"
       inkscape:menu-tooltip="Adds a small scale graininess"
       inkscape:menu="Image effects"
       inkscape:label="Film grain"
       x="0"
       y="0"
       width="1"
       height="1"
       id="filter3894-8">
      <feTurbulence
         result="result0"
         seed="0"
         baseFrequency="1"
         numOctaves="3"
         type="fractalNoise"
         id="feTurbulence3896-7" />
      <feColorMatrix
         type="saturate"
         values="0"
         result="result4"
         id="feColorMatrix3898-9" />
      <feComposite
         result="result2"
         k3="0.5"
         k2="0.5"
         k1="1.25"
         operator="arithmetic"
         in="SourceGraphic"
         in2="result4"
         id="feComposite3900-2" />
      <feBlend
         in="result2"
         mode="normal"
         result="result5"
         in2="SourceGraphic"
         id="feBlend3902-0" />
      <feComposite
         result="result3"
         operator="in"
         in="result5"
         in2="SourceGraphic"
         id="feComposite3904-2" />
    </filter>
    <filter
       color-interpolation-filters="sRGB"
       inkscape:menu-tooltip="Adds a small scale graininess"
       inkscape:menu="Image effects"
       inkscape:label="Film grain"
       x="0"
       y="0"
       width="1"
       height="1"
       id="filter3927-3">
      <feTurbulence
         result="result0"
         seed="0"
         baseFrequency="1"
         numOctaves="3"
         type="fractalNoise"
         id="feTurbulence3929-7" />
      <feColorMatrix
         type="saturate"
         values="0"
         result="result4"
         id="feColorMatrix3931-5" />
      <feComposite
         result="result2"
         k3="0.5"
         k2="0.5"
         k1="1.25"
         operator="arithmetic"
         in="SourceGraphic"
         in2="result4"
         id="feComposite3933-9" />
      <feBlend
         in="result2"
         mode="normal"
         result="result5"
         in2="SourceGraphic"
         id="feBlend3935-2" />
      <feComposite
         result="result3"
         operator="in"
         in="result5"
         in2="SourceGraphic"
         id="feComposite3937-2" />
    </filter>
  </defs>
  <sodipodi:namedview
     pagecolor="#ffffff"
     bordercolor="#666666"
     borderopacity="1"
     objecttolerance="10"
     gridtolerance="10"
     guidetolerance="10"
     inkscape:pageopacity="0"
     inkscape:pageshadow="2"
     inkscape:window-width="1215"
     inkscape:window-height="776"
     id="namedview4"
     showgrid="false"
     inkscape:zoom="0.57943476"
     inkscape:cx="-5.8710672"
     inkscape:cy="-57.902883"
     inkscape:window-x="65"
     inkscape:window-y="24"
     inkscape:window-maximized="1"
     inkscape:current-layer="svg2" />
  <path
     inkscape:connector-curvature="0"
     style="color:#000000;display:inline;overflow:visible;visibility:visible;fill:#2d3e50;fill-opacity:1;fill-rule:evenodd;stroke:none;stroke-width:40;marker:none;enable-background:accumulate"
     d="m 196.58866,30.714972 c -33.83737,-5.38e-4 -61.26812,27.430206 -61.26758,61.267579 0.0243,8.301279 1.73537,16.511029 5.0293,24.130859 H 84.863129 c -23.098444,0 -41.6875,18.58905 -41.6875,41.6875 v 28.375 L 31.9578,301.45716 v 6.40625 c 0,19.56297 15.749534,35.3125 35.3125,35.3125 h 6.375 141.375 205.54815 c 19.56297,0 35.3125,-15.74953 35.3125,-35.3125 v -121.6875 c 0,-19.56297 -15.74953,-35.3125 -35.3125,-35.3125 H 236.2078 l -6.15039,-7.58984 c 17.3334,-11.30523 27.78829,-30.5967 27.79687,-51.291019 5.4e-4,-33.836607 -27.42901,-61.267035 -61.26562,-61.267579 z"
     id="rect3829"
     sodipodi:nodetypes="sccssccssccsssscccs" />
  <path
     style="fill:#000000;fill-opacity:0.19500002;stroke:none;stroke-width:1px;stroke-linecap:butt;stroke-linejoin:miter;stroke-opacity:1"
     d="m 88.572207,154.74741 c -6.508475,3.25424 -44.104205,39.05085 -44.104205,39.05085 l 19.290644,45.55932 387.525424,-1.08474 -1.08474,-49.89831 -56.40678,-34.71186 z"
     id="path3900"
     inkscape:connector-curvature="0"
     sodipodi:nodetypes="ccccccc" />
  <rect
     ry="35.312214"
     y="150.85568"
     x="66.716835"
     height="199.2618"
     width="384.62161"
     id="rect3827"
     style="color:#000000;display:inline;overflow:visible;visibility:visible;fill:#d2c9c4;fill-opacity:1;fill-rule:evenodd;stroke:none;stroke-width:40;marker:none;enable-background:accumulate" />
  <rect
     style="color:#000000;display:inline;overflow:visible;visibility:visible;fill:#fff4ee;fill-opacity:1;fill-rule:evenodd;stroke:none;stroke-width:40;marker:none;enable-background:accumulate"
     id="rect3823"
     width="393.85648"
     height="183.0428"
     x="45.863857"
     y="167.07466"
     ry="32.437965" />
  <rect
     ry="0"
     y="194.68779"
     x="45.863857"
     height="15.830017"
     width="399.89682"
     id="rect3897"
     style="color:#000000;display:inline;overflow:visible;visibility:visible;fill:#000000;fill-opacity:0.19499996;fill-rule:evenodd;stroke:none;stroke-width:40;marker:none;enable-background:accumulate" />
  <path
     style="color:#000000;display:inline;overflow:visible;visibility:visible;fill:#55607e;fill-opacity:1;fill-rule:evenodd;stroke:none;stroke-width:40;marker:none;enable-background:accumulate"
     d="M 374.50195 61.949219 A 97.984797 97.984797 0 0 0 276.51758 159.93359 A 97.984797 97.984797 0 0 0 287.17969 204.14648 L 64.787109 204.14648 C 46.816484 204.14648 32.382992 218.61337 32.349609 236.58398 L 31.960938 445.11523 C 31.927557 463.08582 46.427811 477.55273 64.398438 477.55273 L 446.70312 477.55273 C 464.67377 477.55273 476.37841 462.8723 479.14062 445.11523 L 476.19141 236.58398 C 478.09499 224.34663 470.48892 213.59573 459.70312 208.08008 A 97.984797 97.984797 0 0 0 472.48633 159.93359 A 97.984797 97.984797 0 0 0 374.50195 61.949219 z M 374.50195 69.576172 A 90.357136 90.357136 0 0 1 383.52344 70.027344 A 90.357136 90.357136 0 0 1 392.45312 71.376953 A 90.357136 90.357136 0 0 1 401.20508 73.611328 A 90.357136 90.357136 0 0 1 409.68945 76.708984 A 90.357136 90.357136 0 0 1 417.82227 80.636719 A 90.357136 90.357136 0 0 1 425.52148 85.357422 A 90.357136 90.357136 0 0 1 432.71094 90.824219 A 90.357136 90.357136 0 0 1 439.32031 96.980469 A 90.357136 90.357136 0 0 1 445.28125 103.76562 A 90.357136 90.357136 0 0 1 450.53516 111.11328 A 90.357136 90.357136 0 0 1 455.0293 118.94727 A 90.357136 90.357136 0 0 1 458.71875 127.19141 A 90.357136 90.357136 0 0 1 460.09961 131.3457 C 449.03993 115.38602 430.60432 104.92545 409.7168 104.92578 C 375.88095 104.92632 348.45171 132.35556 348.45117 166.19141 C 348.45417 179.96513 353.09739 193.3362 361.63281 204.14648 L 295.82812 204.14648 A 90.357136 90.357136 0 0 1 293.97461 200.91797 A 90.357136 90.357136 0 0 1 290.28516 192.67383 A 90.357136 90.357136 0 0 1 287.4375 184.10352 A 90.357136 90.357136 0 0 1 285.45898 175.29102 A 90.357136 90.357136 0 0 1 284.37109 166.32422 A 90.357136 90.357136 0 0 1 284.14453 159.93359 A 90.357136 90.357136 0 0 1 284.5957 150.91211 A 90.357136 90.357136 0 0 1 285.94531 141.98242 A 90.357136 90.357136 0 0 1 288.17969 133.23047 A 90.357136 90.357136 0 0 1 291.27734 124.74609 A 90.357136 90.357136 0 0 1 295.20508 116.61328 A 90.357136 90.357136 0 0 1 299.92773 108.91406 A 90.357136 90.357136 0 0 1 305.39258 101.72266 A 90.357136 90.357136 0 0 1 311.54883 95.115234 A 90.357136 90.357136 0 0 1 318.33398 89.154297 A 90.357136 90.357136 0 0 1 325.68164 83.900391 A 90.357136 90.357136 0 0 1 333.51562 79.40625 A 90.357136 90.357136 0 0 1 341.75977 75.716797 A 90.357136 90.357136 0 0 1 350.33203 72.869141 A 90.357136 90.357136 0 0 1 359.14453 70.890625 A 90.357136 90.357136 0 0 1 368.10938 69.802734 A 90.357136 90.357136 0 0 1 374.50195 69.576172 z "
     id="rect3820" />
  <path
     inkscape:connector-curvature="0"
     style="color:#000000;display:inline;overflow:visible;visibility:visible;fill:#000000;fill-opacity:0.16499999;fill-rule:evenodd;stroke:none;stroke-width:40;marker:none;enable-background:accumulate"
     d="m 475.63047,226.48841 3.51483,204.8125 c -2.76221,17.75707 -14.46686,32.4375 -32.4375,32.4375 H 64.3953 c -17.970626,0 -29.868405,-14.65147 -32.4375,-32.4375 l 0.945973,-204.5625 c -0.826844,3.11149 -1.057437,6.41727 -0.5625,9.84375 L 31.9578,445.11341 c 2.569095,17.78603 14.466874,32.4375 32.4375,32.4375 h 382.3125 c 17.97064,0 29.67529,-14.68043 32.4375,-32.4375 l -2.95233,-208.53125 c 0.54654,-3.51345 0.30717,-6.91105 -0.5625,-10.09375 z"
     id="path3854"
     sodipodi:nodetypes="ccssccccssccc" />
  <path
     inkscape:connector-curvature="0"
     style="color:#000000;display:inline;overflow:visible;visibility:visible;fill:#ffffff;fill-opacity:0.15346536;fill-rule:evenodd;stroke:none;stroke-width:40;marker:none;enable-background:accumulate"
     d="m 64.778773,204.14466 c -17.376693,0 -33.875804,13.70177 -32.625,30.6875 1.026334,-15.35767 16.438349,-27.25 32.625,-27.25 H 443.75547 c 16.09898,0 31.58725,11.77914 32.65625,27 1.22721,-16.84436 -15.36622,-30.4375 -32.65625,-30.4375 z"
     id="path3944"
     sodipodi:nodetypes="scsscss" />
  <path
     style="fill:#eef3f6;fill-rule:evenodd"
     d="m 408.15391,122.65247 c -29.53352,0.21738 -52.23004,36.62449 -37.34766,62.78907 10.83395,22.05523 42.56542,32.14375 62.92383,16.81445 19.53247,-12.88355 26.31654,-43.06819 10.76953,-61.58594 -8.40971,-11.20889 -22.22995,-18.45902 -36.3457,-18.01758 z"
     id="circle855"
     inkscape:connector-curvature="0"
     sodipodi:nodetypes="ccccc" />
  <path
     style="fill:#eef3f6;fill-rule:evenodd"
     d="m 194.87577,48.525519 c -29.4375,0.201419 -51.98929,36.472903 -37.29297,62.541021 10.91807,22.44172 43.29732,32.45466 63.625,16.55078 19.09118,-13.05582 25.57213,-42.974725 10.04305,-61.289599 -8.3936,-11.217875 -22.26355,-18.411603 -36.37508,-17.802202 z"
     id="circle869"
     inkscape:connector-curvature="0"
     sodipodi:nodetypes="ccccc" />
  <circle
     style="fill:#2d3e50;fill-rule:evenodd"
     id="path885"
     cx="217.92812"
     cy="102.95083"
     r="15.864406" />
  <circle
     style="fill:#2d3e50;fill-rule:evenodd"
     id="path887"
     cx="399.75861"
     cy="171.28981"
     r="24.406778" />
  <rect
     style="fill:#eef3f6;fill-rule:evenodd"
     id="rect973"
     width="136.33977"
     height="77.661896"
     x="188.11436"
     y="312.77209" />
  <path
     style="fill:#f59d1f;fill-rule:evenodd;stroke-width:2.10370493"
     d="m 219.94889,268.33921 a 130.92889,130.92889 0 0 0 1.32714,3.99786 c -2.99422,5.92342 -6.61535,11.50289 -10.75273,16.68173 -4.13736,5.17884 -8.78945,9.95776 -13.85075,14.27397 -5.06133,4.31622 -10.52944,8.16909 -16.29551,11.50464 -5.76607,3.33555 -11.83122,6.15332 -18.08282,8.39017 -6.2516,2.23684 -12.69068,3.89402 -19.20863,4.91412 -6.51793,1.02009 -13.11607,1.40355 -19.68115,1.08882 -3.28253,-0.15736 -6.55447,-0.48936 -9.8077,-1.00254 -3.25321,-0.51318 -6.48793,-1.20761 -9.68443,-2.09138 -3.19651,-0.88377 -6.358399,-1.9563 -9.470789,-3.2254 -3.112373,-1.26912 -6.174084,-2.73543 -9.174935,-4.40463 -4.189045,-2.0674 -8.20325,-4.44355 -12.026461,-7.09178 -3.823231,-2.64825 -7.453637,-5.56988 -10.871884,-8.72299 -3.418248,-3.15312 -6.624021,-6.53792 -9.598155,-10.11998 -2.974134,-3.58204 -5.718501,-7.36005 -8.209372,-11.29509 a 130.92889,130.92889 0 0 0 5.982411,11.64024 130.92889,130.92889 0 0 0 7.120537,10.98282 130.92889,130.92889 0 0 0 8.176512,10.21857 130.92889,130.92889 0 0 0 9.154399,9.35163 130.92889,130.92889 0 0 0 10.046012,8.38606 130.92889,130.92889 0 0 0 10.830796,7.34654 130.92889,130.92889 0 0 0 11.512869,6.22894 130.92889,130.92889 0 0 0 12.07575,5.04559 130.92889,130.92889 0 0 0 12.5154,3.81709 130.92889,130.92889 0 0 0 12.84001,2.54744 130.92889,130.92889 0 0 0 13.02487,1.24909 130.92889,130.92889 0 0 0 5.87148,0.13969 130.92889,130.92889 0 0 0 13.07009,-0.67794 130.92889,130.92889 0 0 0 12.93861,-1.97635 130.92889,130.92889 0 0 0 12.67154,-3.25828 130.92889,130.92889 0 0 0 12.2894,-4.50733 130.92889,130.92889 0 0 0 11.77172,-5.71535 130.92889,130.92889 0 0 0 11.14718,-6.85759 130.92889,130.92889 0 0 0 10.40758,-7.93819 130.92889,130.92889 0 0 0 5.89613,-5.30037 130.92889,130.92889 0 0 0 9.90631,8.55453 130.92889,130.92889 0 0 0 10.70752,7.5191 130.92889,130.92889 0 0 0 11.41014,6.41795 130.92889,130.92889 0 0 0 11.98948,5.24283 130.92889,130.92889 0 0 0 12.45376,4.01841 130.92889,130.92889 0 0 0 12.79482,2.75699 130.92889,130.92889 0 0 0 13.00435,1.46685 130.92889,130.92889 0 0 0 7.92175,0.25474 130.92889,130.92889 0 0 0 13.07009,-0.66561 130.92889,130.92889 0 0 0 12.93861,-1.97223 130.92889,130.92889 0 0 0 12.67564,-3.25007 130.92889,130.92889 0 0 0 12.28942,-4.49913 130.92889,130.92889 0 0 0 11.77993,-5.70712 130.92889,130.92889 0 0 0 11.15128,-6.84937 130.92889,130.92889 0 0 0 10.4117,-7.93408 130.92889,130.92889 0 0 0 9.56529,-8.92842 130.92889,130.92889 0 0 0 8.62847,-9.84059 130.92889,130.92889 0 0 0 7.60128,-10.65411 130.92889,130.92889 0 0 0 6.50011,-11.36083 130.92889,130.92889 0 0 0 2.53924,-5.29214 c -2.49087,3.93504 -5.23524,7.71305 -8.20938,11.29509 -2.97413,3.58206 -6.1799,6.96686 -9.59815,10.11998 -3.41825,3.15311 -7.04865,6.07472 -10.87188,8.72299 -3.82321,2.64823 -7.83742,5.02438 -12.02647,7.09178 -3.00085,1.6692 -6.06256,3.13551 -9.17493,4.40463 -3.11239,1.2691 -6.27428,2.34163 -9.47079,3.2254 -3.1965,0.88377 -6.43122,1.5782 -9.68443,2.09138 -3.25323,0.51318 -6.52517,0.8452 -9.8077,1.00254 -6.56508,0.31471 -13.1632,-0.0688 -19.68115,-1.08882 -6.51795,-1.0201 -12.95704,-2.67728 -19.20864,-4.91412 -6.2516,-2.23685 -12.31675,-5.05462 -18.08282,-8.39017 -5.76606,-3.33555 -11.23418,-7.18842 -16.29551,-11.50464 -5.06132,-4.31621 -9.71339,-9.09513 -13.85075,-14.27397 -4.13738,-5.17884 -7.75853,-10.75831 -10.75273,-16.68173 a 130.92889,130.92889 0 0 0 1.32714,-3.99786 h -3.23362 -61.43888 z"
     id="path970"
     inkscape:connector-curvature="0" />
  <path
     style="color:#000000;font-style:normal;font-variant:normal;font-weight:normal;font-stretch:normal;font-size:medium;line-height:normal;font-family:Sans;-inkscape-font-specification:Sans;text-indent:0;text-align:start;text-decoration:none;text-decoration-line:none;letter-spacing:normal;word-spacing:normal;text-transform:none;writing-mode:lr-tb;direction:ltr;baseline-shift:baseline;text-anchor:start;display:inline;overflow:visible;visibility:visible;fill:#ce4c4c;fill-opacity:1;stroke:none;stroke-width:12.8431654;marker:none;enable-background:accumulate"
     d="m 259.14774,106.60717 c 7.88918,-33.720199 -13.16422,-67.633649 -46.88442,-75.522839 -33.72021,-7.889179 -67.66598,13.15665 -75.55516,46.87687 -3.70188,15.82267 -1.02405,31.669839 6.33908,44.871129 -4.84621,3.1682 -9.69694,6.40653 -13.82277,8.96783 -21.58923,-0.39311 -96.534921,33.04969 -84.048841,56.37575 25.94332,13.30659 76.334781,-26.39786 89.223321,-45.86039 5.30081,-3.29071 10.19805,-6.58764 15.22596,-9.86655 8.44702,10.18598 20.16829,17.80657 33.99998,21.04263 33.72021,7.88918 67.63367,-13.16422 75.52285,-46.88443 z m -15.05855,-3.5231 c -5.98627,25.58671 -31.35448,41.33525 -56.9412,35.34898 -25.58673,-5.98627 -41.36756,-31.36204 -35.38128,-56.948749 5.98626,-25.58672 31.39434,-41.36 56.98106,-35.37373 25.58672,5.98627 41.32769,31.38679 35.34142,56.973499 z"
     id="path4804"
     inkscape:connector-curvature="0" />
  <path
     inkscape:connector-curvature="0"
     id="path5594"
     d="m 374.5029,69.575418 a 90.357136,90.357136 0 0 0 -6.39258,0.226772 90.357136,90.357136 0 0 0 -8.96485,1.087861 90.357136,90.357136 0 0 0 -8.81249,1.978507 90.357136,90.357136 0 0 0 -8.57227,2.847685 90.357136,90.357136 0 0 0 -8.24414,3.689462 90.357136,90.357136 0 0 0 -7.83398,4.494123 90.357136,90.357136 0 0 0 -7.34766,5.253921 90.357136,90.357136 0 0 0 -6.78516,5.96092 90.357136,90.357136 0 0 0 -6.15625,6.607441 90.357136,90.357136 0 0 0 -5.46485,7.19139 90.357136,90.357136 0 0 0 -4.72267,7.6992 90.357136,90.357136 0 0 0 -3.92773,8.13282 90.357136,90.357136 0 0 0 -3.09766,8.4844 90.357136,90.357136 0 0 0 -2.23434,8.75195 90.357136,90.357136 0 0 0 -1.34964,8.92966 90.357136,90.357136 0 0 0 -0.45116,9.02151 90.357136,90.357136 0 0 0 0.2264,6.39061 90.357136,90.357136 0 0 0 1.0879,8.96682 90.357136,90.357136 0 0 0 1.9785,8.8125 90.357136,90.357136 0 0 0 2.84765,8.57026 90.357136,90.357136 0 0 0 3.68946,8.24417 90.357136,90.357136 0 0 0 4.49416,7.83591 90.357136,90.357136 0 0 0 5.25389,7.34574 90.357136,90.357136 0 0 0 5.96095,6.78515 90.357136,90.357136 0 0 0 6.60938,6.15822 90.357136,90.357136 0 0 0 7.18945,5.46481 90.357136,90.357136 0 0 0 7.6992,4.72071 90.357136,90.357136 0 0 0 8.13283,3.92969 90.357136,90.357136 0 0 0 8.48436,3.0957 90.357136,90.357136 0 0 0 8.75198,2.23438 90.357136,90.357136 0 0 0 8.92967,1.34959 90.357136,90.357136 0 0 0 9.0215,0.45317 90.357136,90.357136 0 0 0 6.39062,-0.22678 90.357136,90.357136 0 0 0 8.96678,-1.08982 90.357136,90.357136 0 0 0 8.8125,-1.97658 90.357136,90.357136 0 0 0 8.57227,-2.84765 90.357136,90.357136 0 0 0 8.24417,-3.68946 90.357136,90.357136 0 0 0 7.83397,-4.49412 90.357136,90.357136 0 0 0 7.34571,-5.25393 90.357136,90.357136 0 0 0 6.78708,-5.96091 90.357136,90.357136 0 0 0 6.15625,-6.60942 90.357136,90.357136 0 0 0 5.46485,-7.18945 90.357136,90.357136 0 0 0 4.72071,-7.70117 90.357136,90.357136 0 0 0 3.92969,-8.13282 90.357136,90.357136 0 0 0 3.09766,-8.48436 90.357136,90.357136 0 0 0 2.23438,-8.74998 90.357136,90.357136 0 0 0 1.3496,-8.93163 90.357136,90.357136 0 0 0 0.45116,-9.01954 90.357136,90.357136 0 0 0 -0.2264,-6.39258 90.357136,90.357136 0 0 0 -1.08789,-8.96485 90.357136,90.357136 0 0 0 -1.97851,-8.81446 90.357136,90.357136 0 0 0 -2.84765,-8.57031 90.357136,90.357136 0 0 0 -3.68946,-8.24413 90.357136,90.357136 0 0 0 -4.49416,-7.83398 90.357136,90.357136 0 0 0 -5.25388,-7.34767 90.357136,90.357136 0 0 0 -5.96096,-6.785156 90.357136,90.357136 0 0 0 -6.60938,-6.156245 90.357136,90.357136 0 0 0 -7.18945,-5.466785 90.357136,90.357136 0 0 0 -7.6992,-4.720705 90.357136,90.357136 0 0 0 -8.13283,-3.927723 90.357136,90.357136 0 0 0 -8.48436,-3.097663 90.357136,90.357136 0 0 0 -8.75194,-2.234381 90.357136,90.357136 0 0 0 -8.92971,-1.349632 90.357136,90.357136 0 0 0 -9.02147,-0.451162 z"
     style="fill:#eef3f6;fill-rule:evenodd;stroke:none;stroke-width:0.99999994px;stroke-linecap:butt;stroke-linejoin:miter;stroke-opacity:1" />
  <circle
     r="48.214287"
     cy="139.72968"
     cx="363.15112"
     id="circle5598"
     style="fill:#cd4760;fill-opacity:1;fill-rule:evenodd;stroke:none;stroke-width:0.99999994px;stroke-linecap:butt;stroke-linejoin:miter;stroke-opacity:1" />
  <circle
     r="28.786798"
     cy="139.72968"
     cx="363.15112"
     id="circle5600"
     style="fill:#a23950;fill-opacity:1;fill-rule:evenodd;stroke:none;stroke-width:0.59705943px;stroke-linecap:butt;stroke-linejoin:miter;stroke-opacity:1" />
  <circle
     style="fill:#802d3f;fill-opacity:1;fill-rule:evenodd;stroke:none;stroke-width:0.51288199px;stroke-linecap:butt;stroke-linejoin:miter;stroke-opacity:1"
     id="circle5602"
     cx="363.15112"
     cy="139.72968"
     r="24.728241" />
  <circle
     r="25.253813"
     cy="111.1929"
     cx="401.68982"
     id="circle5604"
     style="fill:#eef3f6;fill-rule:evenodd;stroke:none;stroke-width:0.99999994px;stroke-linecap:butt;stroke-linejoin:miter;stroke-opacity:1" />
</svg>
