<?xml version="1.0" encoding="UTF-8" standalone="no"?>
<!-- Created with Inkscape (http://www.inkscape.org/) -->

<svg
   xmlns:dc="http://purl.org/dc/elements/1.1/"
   xmlns:cc="http://creativecommons.org/ns#"
   xmlns:rdf="http://www.w3.org/1999/02/22-rdf-syntax-ns#"
   xmlns:svg="http://www.w3.org/2000/svg"
   xmlns="http://www.w3.org/2000/svg"
   xmlns:sodipodi="http://sodipodi.sourceforge.net/DTD/sodipodi-0.dtd"
   xmlns:inkscape="http://www.inkscape.org/namespaces/inkscape"
   id="svg2"
   version="1.1"
   inkscape:version="0.92.1 unknown"
   width="512"
   height="512"
   sodipodi:docname="folder-remote.svg">
  <metadata
     id="metadata8">
    <rdf:RDF>
      <cc:Work
         rdf:about="">
        <dc:format>image/svg+xml</dc:format>
        <dc:type
           rdf:resource="http://purl.org/dc/dcmitype/StillImage" />
        <dc:title />
      </cc:Work>
    </rdf:RDF>
  </metadata>
  <defs
     id="defs6">
    <filter
       id="filter3775"
       height="1"
       width="1"
       y="0"
       x="0"
       inkscape:label="Film grain"
       inkscape:menu="Image effects"
       inkscape:menu-tooltip="Adds a small scale graininess"
       color-interpolation-filters="sRGB">
      <feTurbulence
         id="feTurbulence3777"
         type="fractalNoise"
         numOctaves="3"
         baseFrequency="1"
         seed="0"
         result="result0" />
      <feColorMatrix
         id="feColorMatrix3779"
         result="result4"
         values="0"
         type="saturate" />
      <feComposite
         id="feComposite3781"
         in2="result4"
         in="SourceGraphic"
         operator="arithmetic"
         k1="1.25"
         k2="0.5"
         k3="0.5"
         result="result2" />
      <feBlend
         id="feBlend3783"
         in2="SourceGraphic"
         result="result5"
         mode="normal"
         in="result2" />
      <feComposite
         id="feComposite3785"
         in2="SourceGraphic"
         in="result5"
         operator="in"
         result="result3" />
    </filter>
    <filter
       id="filter3789"
       height="1"
       width="1"
       y="0"
       x="0"
       inkscape:label="Film grain"
       inkscape:menu="Image effects"
       inkscape:menu-tooltip="Adds a small scale graininess"
       color-interpolation-filters="sRGB">
      <feTurbulence
         id="feTurbulence3791"
         type="fractalNoise"
         numOctaves="3"
         baseFrequency="1"
         seed="0"
         result="result0" />
      <feColorMatrix
         id="feColorMatrix3793"
         result="result4"
         values="0"
         type="saturate" />
      <feComposite
         id="feComposite3795"
         in2="result4"
         in="SourceGraphic"
         operator="arithmetic"
         k1="1.25"
         k2="0.5"
         k3="0.5"
         result="result2" />
      <feBlend
         id="feBlend3797"
         in2="SourceGraphic"
         result="result5"
         mode="normal"
         in="result2" />
      <feComposite
         id="feComposite3799"
         in2="SourceGraphic"
         in="result5"
         operator="in"
         result="result3" />
    </filter>
    <filter
       id="filter3836"
       height="1"
       width="1"
       y="0"
       x="0"
       inkscape:label="Film grain"
       inkscape:menu="Image effects"
       inkscape:menu-tooltip="Adds a small scale graininess"
       color-interpolation-filters="sRGB">
      <feTurbulence
         id="feTurbulence3838"
         type="fractalNoise"
         numOctaves="3"
         baseFrequency="1"
         seed="0"
         result="result0" />
      <feColorMatrix
         id="feColorMatrix3840"
         result="result4"
         values="0"
         type="saturate" />
      <feComposite
         id="feComposite3842"
         in2="result4"
         in="SourceGraphic"
         operator="arithmetic"
         k1="1.25"
         k2="0.5"
         k3="0.5"
         result="result2" />
      <feBlend
         id="feBlend3844"
         in2="SourceGraphic"
         result="result5"
         mode="normal"
         in="result2" />
      <feComposite
         id="feComposite3846"
         in2="SourceGraphic"
         in="result5"
         operator="in"
         result="result3" />
    </filter>
    <filter
       id="filter3894"
       height="1"
       width="1"
       y="0"
       x="0"
       inkscape:label="Film grain"
       inkscape:menu="Image effects"
       inkscape:menu-tooltip="Adds a small scale graininess"
       color-interpolation-filters="sRGB">
      <feTurbulence
         id="feTurbulence3896"
         type="fractalNoise"
         numOctaves="3"
         baseFrequency="1"
         seed="0"
         result="result0" />
      <feColorMatrix
         id="feColorMatrix3898"
         result="result4"
         values="0"
         type="saturate" />
      <feComposite
         id="feComposite3900"
         in2="result4"
         in="SourceGraphic"
         operator="arithmetic"
         k1="1.25"
         k2="0.5"
         k3="0.5"
         result="result2" />
      <feBlend
         id="feBlend3902"
         in2="SourceGraphic"
         result="result5"
         mode="normal"
         in="result2" />
      <feComposite
         id="feComposite3904"
         in2="SourceGraphic"
         in="result5"
         operator="in"
         result="result3" />
    </filter>
    <filter
       id="filter3927"
       height="1"
       width="1"
       y="0"
       x="0"
       inkscape:label="Film grain"
       inkscape:menu="Image effects"
       inkscape:menu-tooltip="Adds a small scale graininess"
       color-interpolation-filters="sRGB">
      <feTurbulence
         id="feTurbulence3929"
         type="fractalNoise"
         numOctaves="3"
         baseFrequency="1"
         seed="0"
         result="result0" />
      <feColorMatrix
         id="feColorMatrix3931"
         result="result4"
         values="0"
         type="saturate" />
      <feComposite
         id="feComposite3933"
         in2="result4"
         in="SourceGraphic"
         operator="arithmetic"
         k1="1.25"
         k2="0.5"
         k3="0.5"
         result="result2" />
      <feBlend
         id="feBlend3935"
         in2="SourceGraphic"
         result="result5"
         mode="normal"
         in="result2" />
      <feComposite
         id="feComposite3937"
         in2="SourceGraphic"
         in="result5"
         operator="in"
         result="result3" />
    </filter>
    <filter
       color-interpolation-filters="sRGB"
       inkscape:menu-tooltip="Adds a small scale graininess"
       inkscape:menu="Image effects"
       inkscape:label="Film grain"
       x="0"
       y="0"
       width="1"
       height="1"
       id="filter3775-5">
      <feTurbulence
         result="result0"
         seed="0"
         baseFrequency="1"
         numOctaves="3"
         type="fractalNoise"
         id="feTurbulence3777-3" />
      <feColorMatrix
         type="saturate"
         values="0"
         result="result4"
         id="feColorMatrix3779-5" />
      <feComposite
         result="result2"
         k3="0.5"
         k2="0.5"
         k1="1.25"
         operator="arithmetic"
         in="SourceGraphic"
         in2="result4"
         id="feComposite3781-6" />
      <feBlend
         in="result2"
         mode="normal"
         result="result5"
         in2="SourceGraphic"
         id="feBlend3783-2" />
      <feComposite
         result="result3"
         operator="in"
         in="result5"
         in2="SourceGraphic"
         id="feComposite3785-9" />
    </filter>
    <filter
       color-interpolation-filters="sRGB"
       inkscape:menu-tooltip="Adds a small scale graininess"
       inkscape:menu="Image effects"
       inkscape:label="Film grain"
       x="0"
       y="0"
       width="1"
       height="1"
       id="filter3789-1">
      <feTurbulence
         result="result0"
         seed="0"
         baseFrequency="1"
         numOctaves="3"
         type="fractalNoise"
         id="feTurbulence3791-2" />
      <feColorMatrix
         type="saturate"
         values="0"
         result="result4"
         id="feColorMatrix3793-7" />
      <feComposite
         result="result2"
         k3="0.5"
         k2="0.5"
         k1="1.25"
         operator="arithmetic"
         in="SourceGraphic"
         in2="result4"
         id="feComposite3795-0" />
      <feBlend
         in="result2"
         mode="normal"
         result="result5"
         in2="SourceGraphic"
         id="feBlend3797-9" />
      <feComposite
         result="result3"
         operator="in"
         in="result5"
         in2="SourceGraphic"
         id="feComposite3799-3" />
    </filter>
    <filter
       color-interpolation-filters="sRGB"
       inkscape:menu-tooltip="Adds a small scale graininess"
       inkscape:menu="Image effects"
       inkscape:label="Film grain"
       x="0"
       y="0"
       width="1"
       height="1"
       id="filter3836-6">
      <feTurbulence
         result="result0"
         seed="0"
         baseFrequency="1"
         numOctaves="3"
         type="fractalNoise"
         id="feTurbulence3838-0" />
      <feColorMatrix
         type="saturate"
         values="0"
         result="result4"
         id="feColorMatrix3840-6" />
      <feComposite
         result="result2"
         k3="0.5"
         k2="0.5"
         k1="1.25"
         operator="arithmetic"
         in="SourceGraphic"
         in2="result4"
         id="feComposite3842-2" />
      <feBlend
         in="result2"
         mode="normal"
         result="result5"
         in2="SourceGraphic"
         id="feBlend3844-6" />
      <feComposite
         result="result3"
         operator="in"
         in="result5"
         in2="SourceGraphic"
         id="feComposite3846-1" />
    </filter>
    <filter
       color-interpolation-filters="sRGB"
       inkscape:menu-tooltip="Adds a small scale graininess"
       inkscape:menu="Image effects"
       inkscape:label="Film grain"
       x="0"
       y="0"
       width="1"
       height="1"
       id="filter3894-8">
      <feTurbulence
         result="result0"
         seed="0"
         baseFrequency="1"
         numOctaves="3"
         type="fractalNoise"
         id="feTurbulence3896-7" />
      <feColorMatrix
         type="saturate"
         values="0"
         result="result4"
         id="feColorMatrix3898-9" />
      <feComposite
         result="result2"
         k3="0.5"
         k2="0.5"
         k1="1.25"
         operator="arithmetic"
         in="SourceGraphic"
         in2="result4"
         id="feComposite3900-2" />
      <feBlend
         in="result2"
         mode="normal"
         result="result5"
         in2="SourceGraphic"
         id="feBlend3902-0" />
      <feComposite
         result="result3"
         operator="in"
         in="result5"
         in2="SourceGraphic"
         id="feComposite3904-2" />
    </filter>
    <filter
       color-interpolation-filters="sRGB"
       inkscape:menu-tooltip="Adds a small scale graininess"
       inkscape:menu="Image effects"
       inkscape:label="Film grain"
       x="0"
       y="0"
       width="1"
       height="1"
       id="filter3927-3">
      <feTurbulence
         result="result0"
         seed="0"
         baseFrequency="1"
         numOctaves="3"
         type="fractalNoise"
         id="feTurbulence3929-7" />
      <feColorMatrix
         type="saturate"
         values="0"
         result="result4"
         id="feColorMatrix3931-5" />
      <feComposite
         result="result2"
         k3="0.5"
         k2="0.5"
         k1="1.25"
         operator="arithmetic"
         in="SourceGraphic"
         in2="result4"
         id="feComposite3933-9" />
      <feBlend
         in="result2"
         mode="normal"
         result="result5"
         in2="SourceGraphic"
         id="feBlend3935-2" />
      <feComposite
         result="result3"
         operator="in"
         in="result5"
         in2="SourceGraphic"
         id="feComposite3937-2" />
    </filter>
  </defs>
  <sodipodi:namedview
     pagecolor="#ffffff"
     bordercolor="#666666"
     borderopacity="1"
     objecttolerance="10"
     gridtolerance="10"
     guidetolerance="10"
     inkscape:pageopacity="0"
     inkscape:pageshadow="2"
     inkscape:window-width="1215"
     inkscape:window-height="776"
     id="namedview4"
     showgrid="false"
     inkscape:zoom="0.57943474"
     inkscape:cx="85.607632"
     inkscape:cy="67.578289"
     inkscape:window-x="65"
     inkscape:window-y="24"
     inkscape:window-maximized="1"
     inkscape:current-layer="svg2" />
  <path
     inkscape:connector-curvature="0"
     style="color:#000000;display:inline;overflow:visible;visibility:visible;fill:#2d3e50;fill-opacity:1;fill-rule:evenodd;stroke:none;stroke-width:40;marker:none;enable-background:accumulate"
     d="m 198.45845,36.611348 c -33.83737,-5.38e-4 -61.26812,27.430206 -61.26758,61.267579 0.0243,8.301273 1.73537,16.511033 5.0293,24.130863 H 86.732923 c -23.098444,0 -41.6875,18.58905 -41.6875,41.6875 v 28.375 L 33.827594,307.35354 v 6.40625 c 0,19.56297 15.749534,35.3125 35.3125,35.3125 h 6.375 141.374996 205.54815 c 19.56297,0 35.3125,-15.74953 35.3125,-35.3125 v -121.6875 c 0,-19.56297 -15.74953,-35.3125 -35.3125,-35.3125 H 238.07759 l -6.15039,-7.58984 c 17.3334,-11.30523 27.78829,-30.5967 27.79687,-51.291023 5.4e-4,-33.836607 -27.42901,-61.267035 -61.26562,-61.267579 z"
     id="rect3829"
     sodipodi:nodetypes="sccssccssccsssscccs" />
  <path
     style="fill:#000000;fill-opacity:0.19500002;stroke:none;stroke-width:1px;stroke-linecap:butt;stroke-linejoin:miter;stroke-opacity:1"
     d="m 90.442001,160.64379 c -6.508475,3.25424 -44.104205,39.05085 -44.104205,39.05085 l 19.290644,45.55932 387.52542,-1.08474 -1.08474,-49.89831 -56.40678,-34.71186 z"
     id="path3900"
     inkscape:connector-curvature="0"
     sodipodi:nodetypes="ccccccc" />
  <rect
     ry="35.312214"
     y="156.75206"
     x="68.586624"
     height="199.2618"
     width="384.62161"
     id="rect3827"
     style="color:#000000;display:inline;overflow:visible;visibility:visible;fill:#d2c9c4;fill-opacity:1;fill-rule:evenodd;stroke:none;stroke-width:40;marker:none;enable-background:accumulate" />
  <rect
     style="color:#000000;display:inline;overflow:visible;visibility:visible;fill:#fff4ee;fill-opacity:1;fill-rule:evenodd;stroke:none;stroke-width:40;marker:none;enable-background:accumulate"
     id="rect3823"
     width="393.85648"
     height="183.0428"
     x="47.73365"
     y="172.97104"
     ry="32.437965" />
  <rect
     ry="0"
     y="200.58417"
     x="47.73365"
     height="15.830017"
     width="399.89682"
     id="rect3897"
     style="color:#000000;display:inline;overflow:visible;visibility:visible;fill:#000000;fill-opacity:0.19499996;fill-rule:evenodd;stroke:none;stroke-width:40;marker:none;enable-background:accumulate" />
  <path
     style="color:#000000;display:inline;overflow:visible;visibility:visible;fill:#55607e;fill-opacity:1;fill-rule:evenodd;stroke:none;stroke-width:40;marker:none;enable-background:accumulate"
     d="M 378.30469 64.998047 A 97.984797 97.984797 0 0 0 280.32031 162.98242 A 97.984797 97.984797 0 0 0 292.36719 210.04297 L 66.65625 210.04297 C 48.685625 210.04297 34.252133 224.50986 34.21875 242.48047 L 33.832031 451.01172 C 33.798651 468.98231 48.298905 483.44922 66.269531 483.44922 L 448.57422 483.44922 C 466.54486 483.44922 478.24951 468.76879 481.01172 451.01172 L 478.06055 242.48047 C 479.95055 230.33043 472.46995 219.64233 461.80664 214.0918 A 97.984797 97.984797 0 0 0 476.28906 162.98242 A 97.984797 97.984797 0 0 0 378.30469 64.998047 z M 378.30469 72.625 A 90.357136 90.357136 0 0 1 387.32617 73.076172 A 90.357136 90.357136 0 0 1 396.25586 74.425781 A 90.357136 90.357136 0 0 1 405.00781 76.660156 A 90.357136 90.357136 0 0 1 413.49219 79.757812 A 90.357136 90.357136 0 0 1 421.625 83.685547 A 90.357136 90.357136 0 0 1 429.32422 88.40625 A 90.357136 90.357136 0 0 1 436.51367 93.873047 A 90.357136 90.357136 0 0 1 443.12305 100.0293 A 90.357136 90.357136 0 0 1 449.08398 106.81445 A 90.357136 90.357136 0 0 1 454.33789 114.16211 A 90.357136 90.357136 0 0 1 458.83203 121.99609 A 90.357136 90.357136 0 0 1 462.52148 130.24023 A 90.357136 90.357136 0 0 1 465.36914 138.81055 A 90.357136 90.357136 0 0 1 466.94141 145.81055 C 457.10316 125.12484 436.01651 110.82188 411.58594 110.82227 C 377.75009 110.82281 350.32085 138.25204 350.32031 172.08789 C 350.32331 185.86161 354.96653 199.23269 363.50195 210.04297 L 301.26172 210.04297 A 90.357136 90.357136 0 0 1 297.77734 203.9668 A 90.357136 90.357136 0 0 1 294.08789 195.72266 A 90.357136 90.357136 0 0 1 291.24023 187.15234 A 90.357136 90.357136 0 0 1 289.26172 178.33984 A 90.357136 90.357136 0 0 1 288.17383 169.37305 A 90.357136 90.357136 0 0 1 287.94727 162.98242 A 90.357136 90.357136 0 0 1 288.39844 153.96094 A 90.357136 90.357136 0 0 1 289.74805 145.03125 A 90.357136 90.357136 0 0 1 291.98242 136.2793 A 90.357136 90.357136 0 0 1 295.08008 127.79492 A 90.357136 90.357136 0 0 1 299.00781 119.66211 A 90.357136 90.357136 0 0 1 303.73047 111.96289 A 90.357136 90.357136 0 0 1 309.19531 104.77148 A 90.357136 90.357136 0 0 1 315.35156 98.164062 A 90.357136 90.357136 0 0 1 322.13672 92.203125 A 90.357136 90.357136 0 0 1 329.48438 86.949219 A 90.357136 90.357136 0 0 1 337.31836 82.455078 A 90.357136 90.357136 0 0 1 345.5625 78.765625 A 90.357136 90.357136 0 0 1 354.13477 75.917969 A 90.357136 90.357136 0 0 1 362.94727 73.939453 A 90.357136 90.357136 0 0 1 371.91211 72.851562 A 90.357136 90.357136 0 0 1 378.30469 72.625 z "
     id="rect3820" />
  <path
     inkscape:connector-curvature="0"
     style="color:#000000;display:inline;overflow:visible;visibility:visible;fill:#000000;fill-opacity:0.16499999;fill-rule:evenodd;stroke:none;stroke-width:40;marker:none;enable-background:accumulate"
     d="m 477.50026,232.38479 3.51483,204.8125 c -2.76221,17.75707 -14.46686,32.4375 -32.4375,32.4375 H 66.265094 c -17.970626,0 -29.868405,-14.65147 -32.4375,-32.4375 l 0.945973,-204.5625 c -0.826844,3.11149 -1.057437,6.41727 -0.5625,9.84375 l -0.383473,208.53125 c 2.569095,17.78603 14.466874,32.4375 32.4375,32.4375 H 448.57759 c 17.97064,0 29.67529,-14.68043 32.4375,-32.4375 l -2.95233,-208.53125 c 0.54654,-3.51345 0.30717,-6.91105 -0.5625,-10.09375 z"
     id="path3854"
     sodipodi:nodetypes="ccssccccssccc" />
  <path
     inkscape:connector-curvature="0"
     style="color:#000000;display:inline;overflow:visible;visibility:visible;fill:#ffffff;fill-opacity:0.15346536;fill-rule:evenodd;stroke:none;stroke-width:40;marker:none;enable-background:accumulate"
     d="m 66.648567,210.04104 c -17.376693,0 -33.875804,13.70177 -32.625,30.6875 1.026334,-15.35767 16.438349,-27.25 32.625,-27.25 H 445.62526 c 16.09898,0 31.58725,11.77914 32.65625,27 1.22721,-16.84436 -15.36622,-30.4375 -32.65625,-30.4375 z"
     id="path3944"
     sodipodi:nodetypes="scsscss" />
  <path
     style="fill:#eef3f6;fill-rule:evenodd"
     d="m 410.0237,128.54885 c -29.53352,0.21738 -52.23004,36.62449 -37.34766,62.78907 10.83395,22.05523 42.56542,32.14375 62.92383,16.81445 19.53247,-12.88355 26.31654,-43.06819 10.76953,-61.58594 -8.40971,-11.20889 -22.22995,-18.45902 -36.3457,-18.01758 z"
     id="circle855"
     inkscape:connector-curvature="0"
     sodipodi:nodetypes="ccccc" />
  <path
     style="fill:#eef3f6;fill-rule:evenodd"
     d="m 196.74556,54.421895 c -29.4375,0.201419 -51.98929,36.472903 -37.29297,62.541025 10.91807,22.44172 43.29732,32.45466 63.625,16.55078 19.09118,-13.05582 25.57213,-42.974729 10.04305,-61.289603 -8.3936,-11.217875 -22.26355,-18.411603 -36.37508,-17.802202 z"
     id="circle869"
     inkscape:connector-curvature="0"
     sodipodi:nodetypes="ccccc" />
  <circle
     style="fill:#2d3e50;fill-rule:evenodd"
     id="path885"
     cx="219.79791"
     cy="108.84721"
     r="15.864406" />
  <circle
     style="fill:#2d3e50;fill-rule:evenodd"
     id="path887"
     cx="401.62842"
     cy="177.18619"
     r="24.406778" />
  <g
     id="g1028"
     transform="matrix(1.1144314,0,0,1.1144314,462.98154,10.737528)"
     style="fill:#eef3f6">
    <path
       id="path1019"
       d="m -146.27148,332.16406 c -0.80977,-1.42152 -1.70931,-2.80866 -2.71094,-4.15039 -1.1294,-1.72957 -2.36778,-3.40023 -3.70117,-4.99805 -1.3334,-1.59781 -2.76205,-3.1244 -4.27539,-4.56445 -1.51335,-1.44004 -3.11003,-2.79451 -4.7793,-4.05078 -1.66927,-1.25627 -3.41174,-2.41445 -5.21289,-3.46094 -1.80116,-1.04648 -3.66131,-1.98032 -5.57031,-2.79101 -1.90901,-0.8107 -3.86656,-1.49798 -5.85938,-2.04688 -1.99282,-0.54889 -4.02162,-0.95961 -6.07422,-1.2207 -2.0526,-0.26109 -4.12845,-0.37109 -6.2168,-0.31836 -2.33361,-0.036 -4.63797,0.12066 -6.90039,0.45703 -2.26242,0.33637 -4.48377,0.8516 -6.65039,1.52735 -2.16661,0.67574 -4.278,1.51198 -6.32422,2.49414 -2.04621,0.98215 -4.02652,2.10962 -5.92773,3.36523 -1.90121,1.25561 -3.72347,2.64061 -5.45508,4.13672 -1.73161,1.49611 -3.37275,3.10299 -4.91015,4.80664 -1.53741,1.70365 -2.97242,3.50458 -4.29102,5.38281 -1.3186,1.87823 -2.5205,3.83562 -3.5957,5.85547 l 16.58203,11.95508 c 0.53393,-1.32569 1.1519,-2.62226 1.84765,-3.87695 0.69576,-1.2547 1.46842,-2.4675 2.3125,-3.62696 0.84409,-1.15946 1.75938,-2.26666 2.73829,-3.30664 0.9789,-1.03998 2.02282,-2.01389 3.12304,-2.91015 1.10022,-0.89627 2.25681,-1.71506 3.46485,-2.44336 1.20803,-0.72831 2.46719,-1.36624 3.76953,-1.90235 1.30234,-0.53611 2.6481,-0.96939 4.03125,-1.28906 1.38315,-0.31967 2.80345,-0.52452 4.2539,-0.60352 2.47429,-0.15846 4.95511,-0.0163 7.36524,0.4629 1.20506,0.23959 2.39261,0.56244 3.55273,0.9746 1.16013,0.41217 2.29276,0.91433 3.38867,1.50782 1.8727,0.76306 3.60556,1.72741 5.19141,2.86132 1.58586,1.13392 3.02405,2.43599 4.31055,3.8711 1.2865,1.43511 2.4199,3.00327 3.39453,4.66992 0.97463,1.66665 1.79116,3.43319 2.44141,5.26172 z"
       style="fill:#eef3f6;fill-rule:evenodd"
       inkscape:connector-curvature="0" />
    <path
       id="path1011"
       d="m -118.6582,312.25781 c -1.24619,-2.1333 -2.5812,-4.21543 -4.00196,-6.23437 -1.42075,-2.01895 -2.92741,-3.97546 -4.51367,-5.86328 -1.58626,-1.88783 -3.25338,-3.70537 -4.99609,-5.44532 -1.74272,-1.73994 -3.56106,-3.40321 -5.45117,-4.97851 -1.89012,-1.5753 -3.85241,-3.06314 -5.88086,-4.45703 -2.02846,-1.3939 -4.12351,-2.69295 -6.28125,-3.88868 -2.15775,-1.19572 -4.37827,-2.28874 -6.65625,-3.26953 -2.27798,-0.98079 -4.6128,-1.84856 -7.00196,-2.59765 -2.36164,-0.83317 -4.73262,-1.55557 -7.11718,-2.16797 -2.38457,-0.6124 -4.78369,-1.11581 -7.19727,-1.50977 -2.41358,-0.39395 -4.84232,-0.67958 -7.29102,-0.85742 -2.44869,-0.17784 -4.91634,-0.24688 -7.40624,-0.21094 -3.5633,0.004 -7.09951,0.27963 -10.5879,0.80664 -3.48838,0.52702 -6.92877,1.30357 -10.30273,2.3125 -3.37396,1.00894 -6.68036,2.24956 -9.90039,3.69922 -3.22003,1.44967 -6.35427,3.10979 -9.38086,4.95899 -3.02659,1.84919 -5.9466,3.88817 -8.74023,6.0957 -2.79364,2.20753 -5.46126,4.58275 -7.98243,7.10742 -2.52116,2.52467 -4.89628,5.19744 -7.10546,7.99805 -2.20919,2.80061 -4.25168,5.73027 -6.10938,8.76562 l 13.00781,9.37696 c 1.51109,-2.58528 3.18283,-5.08284 4.99805,-7.47266 1.81522,-2.38981 3.77407,-4.67268 5.86133,-6.82812 2.08726,-2.15545 4.3017,-4.18424 6.6289,-6.06641 2.32721,-1.88217 4.76769,-3.61752 7.30274,-5.1875 2.53505,-1.56998 5.16615,-2.97447 7.87695,-4.19336 2.7108,-1.21889 5.50101,-2.25314 8.35547,-3.08203 2.85446,-0.82889 5.77226,-1.45158 8.73828,-1.85156 2.96602,-0.39998 5.97991,-0.57565 9.02539,-0.50782 3.04767,-0.0938 6.06818,0.057 9.04297,0.43555 2.97479,0.37859 5.90423,0.98463 8.77149,1.79688 2.86725,0.81224 5.67141,1.83189 8.39648,3.03906 2.72507,1.20717 5.36974,2.60068 7.91797,4.16406 2.54822,1.56338 4.99921,3.29491 7.33594,5.17578 2.33672,1.88087 4.55982,3.91263 6.65039,6.07227 2.09057,2.15963 4.04961,4.44798 5.85937,6.84765 1.80976,2.39968 3.47055,4.91072 4.96485,7.51172 z"
       style="fill:#eef3f6;fill-rule:evenodd"
       inkscape:connector-curvature="0" />
    <path
       id="path1003"
       d="m -89.449219,291.20117 a 119.59322,119.59322 0 0 0 -0.74414,-1.17773 119.59322,119.59322 0 0 0 -6.947266,-9.72656 119.59322,119.59322 0 0 0 -7.884765,-8.98633 119.59322,119.59322 0 0 0 -8.74219,-8.1543 119.59322,119.59322 0 0 0 -9.51172,-7.24023 119.59322,119.59322 0 0 0 -10.1875,-6.25586 119.59322,119.59322 0 0 0 -10.75976,-5.20704 119.59322,119.59322 0 0 0 -11.22852,-4.10546 119.59322,119.59322 0 0 0 -11.58008,-2.96485 119.59322,119.59322 0 0 0 -11.81836,-1.79492 119.59322,119.59322 0 0 0 -11.93945,-0.60351 119.59322,119.59322 0 0 0 -1.35351,0.008 119.59322,119.59322 0 0 0 -11.93164,0.75 119.59322,119.59322 0 0 0 -11.79493,1.9375 119.59322,119.59322 0 0 0 -11.54492,3.10547 119.59322,119.59322 0 0 0 -11.17578,4.24023 119.59322,119.59322 0 0 0 -10.69727,5.33789 119.59322,119.59322 0 0 0 -10.11132,6.37695 119.59322,119.59322 0 0 0 -9.42383,7.35547 119.59322,119.59322 0 0 0 -8.64258,8.25977 119.59322,119.59322 0 0 0 -7.77539,9.08008 119.59322,119.59322 0 0 0 -6.82813,9.8125 l 14.69727,10.5957 c 2.3252,-3.68336 4.88601,-7.22866 7.65625,-10.60937 2.77024,-3.38072 5.75038,-6.59726 8.91211,-9.625 3.16173,-3.02775 6.50424,-5.86774 10.00391,-8.49219 3.49966,-2.62445 7.15538,-5.03425 10.93945,-7.20508 3.78406,-2.17083 7.69797,-4.10266 11.71289,-5.76953 4.01492,-1.66688 8.132,-3.06904 12.32422,-4.18164 4.19222,-1.1126 8.45941,-1.93537 12.77539,-2.44336 4.31598,-0.50799 8.68021,-0.69968 13.0664,-0.55274 3.70355,-0.044 7.39615,0.14554 11.0586,0.55664 3.66245,0.41111 7.29434,1.04308 10.8789,1.88086 3.58457,0.83779 7.1219,1.88117 10.5918,3.11719 3.46991,1.23602 6.87295,2.66372 10.19141,4.26953 3.31846,1.60581 6.5514,3.39075 9.68164,5.33789 3.13024,1.94715 6.15727,4.05637 9.0625,6.31641 2.90523,2.26004 5.68859,4.67036 8.33203,7.21484 2.64344,2.54449 5.14732,5.22491 7.49219,8.02539 1.66115,1.86323 3.22742,3.79083 4.70508,5.77344 1.47765,1.98262 2.86671,4.02025 4.17187,6.10352 z"
       style="fill:#eef3f6;fill-rule:evenodd"
       inkscape:connector-curvature="0" />
  </g>
  <path
     inkscape:connector-curvature="0"
     id="path5594"
     d="m 378.30507,72.625725 a 90.357136,90.357136 0 0 0 -6.39258,0.226772 90.357136,90.357136 0 0 0 -8.96485,1.087861 90.357136,90.357136 0 0 0 -8.8125,1.978507 90.357136,90.357136 0 0 0 -8.57227,2.847685 90.357136,90.357136 0 0 0 -8.24413,3.689462 90.357136,90.357136 0 0 0 -7.83398,4.494123 90.357136,90.357136 0 0 0 -7.34766,5.25392 90.357136,90.357136 0 0 0 -6.78516,5.96092 90.357136,90.357136 0 0 0 -6.15625,6.607445 90.357136,90.357136 0 0 0 -5.46486,7.19138 90.357136,90.357136 0 0 0 -4.72267,7.6992 90.357136,90.357136 0 0 0 -3.92772,8.13282 90.357136,90.357136 0 0 0 -3.09766,8.4844 90.357136,90.357136 0 0 0 -2.23435,8.75195 90.357136,90.357136 0 0 0 -1.34963,8.92966 90.357136,90.357136 0 0 0 -0.45116,9.02151 90.357136,90.357136 0 0 0 0.22639,6.39061 90.357136,90.357136 0 0 0 1.0879,8.96682 90.357136,90.357136 0 0 0 1.97851,8.8125 90.357136,90.357136 0 0 0 2.84765,8.57026 90.357136,90.357136 0 0 0 3.68946,8.24417 90.357136,90.357136 0 0 0 4.49416,7.83591 90.357136,90.357136 0 0 0 5.25388,7.34574 90.357136,90.357136 0 0 0 5.96096,6.78515 90.357136,90.357136 0 0 0 6.60937,6.15822 90.357136,90.357136 0 0 0 7.18946,5.46481 90.357136,90.357136 0 0 0 7.6992,4.72071 90.357136,90.357136 0 0 0 8.13282,3.92969 90.357136,90.357136 0 0 0 8.48436,3.0957 90.357136,90.357136 0 0 0 8.75199,2.23438 90.357136,90.357136 0 0 0 8.92966,1.34959 90.357136,90.357136 0 0 0 9.02151,0.45317 90.357136,90.357136 0 0 0 6.39061,-0.22678 90.357136,90.357136 0 0 0 8.96678,-1.08982 90.357136,90.357136 0 0 0 8.8125,-1.97658 90.357136,90.357136 0 0 0 8.57227,-2.84765 90.357136,90.357136 0 0 0 8.24417,-3.68946 90.357136,90.357136 0 0 0 7.83397,-4.49412 90.357136,90.357136 0 0 0 7.34571,-5.25393 90.357136,90.357136 0 0 0 6.78708,-5.96091 90.357136,90.357136 0 0 0 6.15625,-6.60942 90.357136,90.357136 0 0 0 5.46485,-7.18945 90.357136,90.357136 0 0 0 4.72071,-7.70117 90.357136,90.357136 0 0 0 3.92969,-8.13282 90.357136,90.357136 0 0 0 3.09766,-8.48436 90.357136,90.357136 0 0 0 2.23438,-8.74998 90.357136,90.357136 0 0 0 1.3496,-8.93163 90.357136,90.357136 0 0 0 0.45116,-9.01954 90.357136,90.357136 0 0 0 -0.2264,-6.39258 90.357136,90.357136 0 0 0 -1.08789,-8.96485 90.357136,90.357136 0 0 0 -1.97851,-8.81446 90.357136,90.357136 0 0 0 -2.84765,-8.57031 90.357136,90.357136 0 0 0 -3.68946,-8.24413 90.357136,90.357136 0 0 0 -4.49416,-7.83398 90.357136,90.357136 0 0 0 -5.25388,-7.34766 90.357136,90.357136 0 0 0 -5.96096,-6.78516 90.357136,90.357136 0 0 0 -6.60938,-6.156245 90.357136,90.357136 0 0 0 -7.18945,-5.46678 90.357136,90.357136 0 0 0 -7.6992,-4.72071 90.357136,90.357136 0 0 0 -8.13283,-3.927722 90.357136,90.357136 0 0 0 -8.48436,-3.097663 90.357136,90.357136 0 0 0 -8.75194,-2.234381 90.357136,90.357136 0 0 0 -8.92971,-1.349632 90.357136,90.357136 0 0 0 -9.02146,-0.451162 z"
     style="fill:#eef3f6;fill-rule:evenodd;stroke:none;stroke-width:0.99999994px;stroke-linecap:butt;stroke-linejoin:miter;stroke-opacity:1" />
  <circle
     r="48.214287"
     cy="142.77998"
     cx="366.95331"
     id="circle5598"
     style="fill:#cd4760;fill-opacity:1;fill-rule:evenodd;stroke:none;stroke-width:0.99999994px;stroke-linecap:butt;stroke-linejoin:miter;stroke-opacity:1" />
  <circle
     r="28.786798"
     cy="142.77998"
     cx="366.95331"
     id="circle5600"
     style="fill:#a23950;fill-opacity:1;fill-rule:evenodd;stroke:none;stroke-width:0.59705943px;stroke-linecap:butt;stroke-linejoin:miter;stroke-opacity:1" />
  <circle
     style="fill:#802d3f;fill-opacity:1;fill-rule:evenodd;stroke:none;stroke-width:0.51288199px;stroke-linecap:butt;stroke-linejoin:miter;stroke-opacity:1"
     id="circle5602"
     cx="366.95331"
     cy="142.77998"
     r="24.728241" />
  <circle
     r="25.253813"
     cy="114.24321"
     cx="405.49197"
     id="circle5604"
     style="fill:#eef3f6;fill-rule:evenodd;stroke:none;stroke-width:0.99999994px;stroke-linecap:butt;stroke-linejoin:miter;stroke-opacity:1" />
</svg>
